TRANS_ID|PFP_ID|account_no|premise|text_message|voice_script_identifier|primary_phone_number|cell_phone_flag_1|secondary_phone_number|cell_phone_flag_2|CampaignCode|CampaignName|timestamp1|whole_name|prem_addr_complete|prem_city|prem_state|prem_zip|email_address|Custom1|Custom2|Custom3|Custom4|Custom5
257595|827|8366131095|1682226|FPL Alert: Power is out at 1601 YALE DR. There are 3 customers affected. We expect power to be back on at 7:30 PM 11/19. Updates at FPL.com/outage||6302420839|Y||Y|C000000039|I-Notify Processes|12/16/2014 00:04:19|GEORGE ONEILL|1601 YALE DR|HOLLYWOOD|FL|33021||||||
257595|827|8366131095|1682226|FPL Alert: Power is out at 1601 YALE DR. There are 3 customers affected. We expect power to be back on at 7:30 PM 11/19. Updates at FPL.com/outage||6302420839|Y||Y|C000000039|I-Notify Processes|12/16/2014 00:04:19|GEORGE ONEILL|1601 YALE DR|HOLLYWOOD|FL|33021||||||
257595|827|8366131095|1682226|FPL Alert: Power is out at 1601 YALE DR. There are 3 customers affected. We expect power to be back on at 7:30 PM 11/19. Updates at FPL.com/outage||6302420839|Y||Y|C000000039|I-Notify Processes|12/16/2014 00:04:19|GEORGE ONEILL|1601 YALE DR|HOLLYWOOD|FL|33021||||||
257597|34732|9304709398|2151045|Alerta FPL: Interrup. en 11840 SW 177TH TER causada por un equipo de FPL dañado. Su servicio debería estar restablecido. Si no, pruebe FPL.com/resetbreakers||6302420839|Y||Y|C000000039|I-Notify Processes|12/16/2014 00:04:19|ZOILA LUPERON|11840 SW 177TH TER|MIAMI|FL|33177||||||
257598|23700|6307261252|2151159|Alerta FPL: Interrup. en 11841 SW 178TH TER causada por un equipo de FPL dañado. Su servicio debería estar restablecido. Si no, pruebe FPL.com/resetbreakers||6302420839|Y||Y|C000000039|I-Notify Processes|12/16/2014 00:04:19|JORGE HERNANDEZ|11841 SW 178TH TER|MIAMI|FL|33177||||||
257600|25685|6848647589|2151157|FPL Alert: The outage at 11861 SW 178TH TER was caused by damaged FPL equipment. Your power should be on. If not try FPL.com/resetbreakers||6302420839|Y||Y|C000000039|I-Notify Processes|12/16/2014 00:04:19|MARCOS GISBERT|11861 SW 178TH TER|MIAMI|FL|33177||||||
257601|22010|5877881523|1682225|FPL Alert: Power is out at 1520 N 40TH AVE. There are 3 customers affected. We expect power to be back on at 7:30 PM 11/19. Updates at FPL.com/outage||6302420839|Y||Y|C000000039|I-Notify Processes|12/16/2014 00:04:19|ROBERT ALFANO|1520 N 40TH AVE|HOLLYWOOD|FL|33021||||||
257634|12847|3433868324|2336808|FPL Alert: Power is out at 1050 S SHORE DR. There are 6 customers affected. We expect power to be back on at 7:45 PM 11/19. Updates at FPL.com/outage||6302420839|Y||Y|C000000039|I-Notify Processes|12/16/2014 00:04:19|MICHAEL HANNAU|1050 S SHORE DR|MIAMI BEACH|FL|33141||||||
257650|34427|9219138410|2624993|FPL Alert: The outage at 2701 NE 214TH ST was caused by a tree/branch damaging FPL equipment. Your power should be on. If not try FPL.com/resetbreakers||6302420839|Y||Y|C000000039|I-Notify Processes|12/16/2014 00:04:19|TYE ORLANIS|2701 NE 214TH ST|AVENTURA|FL|33180||||||
257658|27910|7467789405|3692803|FPL Alert: The outage at 21280 BISCAYNE BLVD was caused by a tree/branch damaging FPL equipment. Your power should be on. If not try FPL.com/resetbreakers||6302420839|Y||Y|C000000039|I-Notify Processes|12/16/2014 00:04:19|STOR-ALL NULL|21280 BISCAYNE BLVD|AVENTURA|FL|33180||||||
257673|2725|769226176|288151|FPL Alert: The outage at 888 PECAN CIR was caused by damaged FPL equipment. Your power should be on. If not try FPL.com/resetbreakers||6302420839|Y||Y|C000000039|I-Notify Processes|12/16/2014 00:04:19|JOHN KMETZ|888 PECAN CIR|BAREFOOT BAY|FL|32976||||||
257677|6811|1840826117|288143|FPL Alert: The outage at 860 PECAN CIR was caused by damaged FPL equipment. Your power should be on. If not try FPL.com/resetbreakers||6302420839|Y||Y|C000000039|I-Notify Processes|12/16/2014 00:04:19|EDDIE SIMCHICK|860 PECAN CIR|BAREFOOT BAY|FL|32976||||||
257679|36346|9763403020|288149|FPL Alert: The outage at 886 PECAN CIR was caused by damaged FPL equipment. Your power should be on. If not try FPL.com/resetbreakers||6302420839|Y||Y|C000000039|I-Notify Processes|12/16/2014 00:04:19|TERRI MOORE|886 PECAN CIR|BAREFOOT BAY|FL|32976||||||
257681|21438|5713371432|288142|FPL Alert: The outage at 862 PECAN CIR was caused by damaged FPL equipment. Your power should be on. If not try FPL.com/resetbreakers||6302420839|Y||Y|C000000039|I-Notify Processes|12/16/2014 00:04:19|WINSTON COBURN|862 PECAN CIR|BAREFOOT BAY|FL|32976||||||
257683|15976|4259011338|288137|FPL Alert: The outage at 877 PECAN CIR was caused by damaged FPL equipment. Your power should be on. If not try FPL.com/resetbreakers||6302420839|Y||Y|C000000039|I-Notify Processes|12/16/2014 00:04:19|WILLIAM MCKAY|877 PECAN CIR|BAREFOOT BAY|FL|32976||||||
257690|28527|7638306246|170379213|FPL Alert: The outage at 10925 CALLAWAY GREEN was caused by damaged FPL equipment. Your power should be on. If not try FPL.com/resetbreakers||6302420839|Y||Y|C000000039|I-Notify Processes|12/16/2014 00:04:19|EMILY LOISELLE|10925 CALLAWAY GREENS CT|FORT MYERS|FL|33913||||||
257707|25059|6673860570|1565354|FPL Alert: Power is out at 2650 SW 16TH ST. There are 71 customers affected. We expect power to be back on at 7:30 PM 11/19. Updates at FPL.com/outage||6302420839|Y||Y|C000000039|I-Notify Processes|12/16/2014 00:04:19|JOHN JORGENSEN|2650 SW 16TH ST|FT LAUDERDALE|FL|33312||||||
257710|8892|2365246038|1565337|FPL Alert: Power is out at 2701 SW 16TH CT. There are 71 customers affected. We expect power to be back on at 7:30 PM 11/19. Updates at FPL.com/outage||6302420839|Y||Y|C000000039|I-Notify Processes|12/16/2014 00:04:19|WILL WHARTON|2701 SW 16TH CT|FT LAUDERDALE|FL|33312||||||
257711|30056|8056981585|2650710|FPL Alert: The outage at 13400 NW 1ST AVE was caused by damaged FPL equipment. Your power should be on. If not try FPL.com/resetbreakers||6302420839|Y||Y|C000000039|I-Notify Processes|12/16/2014 00:04:19|ANN CRAVERO|13400 NW 1ST AVE|MIAMI|FL|33168||||||
257712|28840|7736229498|2650711|FPL Alert: The outage at 13350 NW 1ST AVE was caused by damaged FPL equipment. Your power should be on. If not try FPL.com/resetbreakers||6302420839|Y||Y|C000000039|I-Notify Processes|12/16/2014 00:04:19|KASSA MESHESHA|13350 NW 1ST AVE|MIAMI|FL|33168||||||
257722|14016|3745485650|2575024|FPL Alert: The outage at 1165 NE 177TH TER was caused by a tree/branch damaging FPL equipment. Your power should be on. If not try FPL.com/resetbreakers||6302420839|Y||Y|C000000039|I-Notify Processes|12/16/2014 00:04:19|SOLANGE FERTIL|1165 NE 177TH TER|NORTH MIAMI BEACH|FL|33162||||||
257723|27544|7367440109|1619674|FPL Alert: The outage at 1049 SW 3RD ST APT N was caused by damaged FPL equipment. Your power should be on. If not try FPL.com/resetbreakers||6302420839|Y||Y|C000000039|I-Notify Processes|12/16/2014 00:04:19|KERRY WILLIAMS|1049 SW 3RD ST APT N|HALLANDALE BEACH|FL|33009||||||
257724|21203|5648301298|2650750|FPL Alert: The outage at 13401 NW 1ST CT was caused by damaged FPL equipment. Your power should be on. If not try FPL.com/resetbreakers||6302420839|Y||Y|C000000039|I-Notify Processes|12/16/2014 00:04:19|LICELY RIFAI|13401 NW 1ST CT|MIAMI|FL|33168||||||
257733|1815|503460107|2071927|FPL Alert: Outage Update. Power should be on at 3720 GRANADA BLVD. If not try FPL.com/resetbreakers or report it at FPL.com/outage or call 1-800-468-8243||6302420839|Y||Y|C000000039|I-Notify Processes|12/16/2014 00:04:19|THOMAS DANIEL|3720 GRANADA BLVD|CORAL GABLES|FL|33134||||||
257740|36185|9722819340|432626418|FPL Alert: The outage at 84 BOULDER ROCK DR was caused by damaged FPL equipment. Your power should be on. If not try FPL.com/resetbreakers||6302420839|Y||Y|C000000039|I-Notify Processes|12/16/2014 00:04:19|VIRGINIA AYALA|84 BOULDER ROCK DR|PALM COAST|FL|32137||||||
257741|17350|4622988121|74993|FPL Alert: The outage at 532 N RIDGEWOOD AVE was caused by damaged FPL equipment. Your power should be on. If not try FPL.com/resetbreakers||6302420839|Y||Y|C000000039|I-Notify Processes|12/16/2014 00:04:19|PEGCO INC NULL|532 N RIDGEWOOD AVE|DAYTONA BEACH|FL|32114||||||
257743|26627|7117046214|1440301|FPL Alert: Outage Update. Power should be on at 1040 NW 30TH CT. If not try FPL.com/resetbreakers or report it at FPL.com/outage or call 1-800-468-8243||6302420839|Y||Y|C000000039|I-Notify Processes|12/16/2014 00:04:19|DONALD KITZMILLER|1040 NW 30TH CT|WILTON MANORS|FL|33311||||||
257763|24368|6478062257|2042433|FPL Alert: The outage at 7325 SW 82ND AVE was caused by damaged FPL equipment. Your power should be on. If not try FPL.com/resetbreakers||6302420839|Y||Y|C000000039|I-Notify Processes|12/16/2014 00:04:19|RAUL RODRIGUEZ|7325 SW 82ND AVE|MIAMI|FL|33143||||||
257796|15|106069529|756111|FPL Alert: The outage at 6248 17TH DR S # 905 was caused by damaged FPL equipment. Your power should be on. If not try FPL.com/resetbreakers||6302420839|Y||Y|C000000039|I-Notify Processes|12/16/2014 00:04:19|ALBERTO LAGOS|6248 17TH DR S # 905|WEST PALM BEACH|FL|33415||||||
257796|15|106069529|756111|FPL Alert: The outage at 6248 17TH DR S # 905 was caused by damaged FPL equipment. Your power should be on. If not try FPL.com/resetbreakers||6302420839|Y||Y|C000000039|I-Notify Processes|12/16/2014 00:04:19|ALBERTO LAGOS|6248 17TH DR S # 905|WEST PALM BEACH|FL|33415||||||
257796|15|106069529|756111|FPL Alert: The outage at 6248 17TH DR S # 905 was caused by damaged FPL equipment. Your power should be on. If not try FPL.com/resetbreakers||6302420839|Y||Y|C000000039|I-Notify Processes|12/16/2014 00:04:19|ALBERTO LAGOS|6248 17TH DR S # 905|WEST PALM BEACH|FL|33415||||||
257808|34670|9289137185|3624151|FPL Alert: The outage at 3471 THORNBURY LN was caused by damaged FPL equipment. Your power should be on. If not try FPL.com/resetbreakers||6302420839|Y||Y|C000000039|I-Notify Processes|12/16/2014 00:04:19|GEORGE MAGINNESS|3471 THORNBURY LN|BONITA SPRINGS|FL|34134||||||
257821|17896|4787523929|773279|FPL Alert: The outage at 320 VALENCIA RD was caused by a tree/branch damaging FPL equipment. Your power should be on. If not try FPL.com/resetbreakers||6302420839|Y||Y|C000000039|I-Notify Processes|12/16/2014 00:04:19|FREDRICK MOOK|320 VALENCIA RD|WEST PALM BEACH|FL|33401||||||
257830|2393|668087463|941952|FPL Alert: Power is out at 5115 2ND AVE W. There are 9 customers affected. We expect power to be back on at 7:15 PM 11/19. Updates at FPL.com/outage||6302420839|Y||Y|C000000039|I-Notify Processes|12/16/2014 00:04:19|MARIA LABRIE|5115 2ND AVE W|BRADENTON|FL|34209||||||
257831|32467|8699740455|3087089|FPL Alert: The outage at 319 SUNSET RD APT B was caused by a tree/branch damaging FPL equipment. Your power should be on. If not try FPL.com/resetbreakers||6302420839|Y||Y|C000000039|I-Notify Processes|12/16/2014 00:04:19|MARCO VILLALOBOS|319 SUNSET RD APT B|WEST PALM BEACH|FL|33401||||||
257833|4135|1122246141|785648|FPL Alert: The outage at 305 SUNSET RD was caused by a tree/branch damaging FPL equipment. Your power should be on. If not try FPL.com/resetbreakers||6302420839|Y||Y|C000000039|I-Notify Processes|12/16/2014 00:04:19|KELLY MACNEIL|305 SUNSET RD|WEST PALM BEACH|FL|33401||||||
257835|14163|3777425491|785650|FPL Alert: The outage at 2417 S OLIVE AVE was caused by a tree/branch damaging FPL equipment. Your power should be on. If not try FPL.com/resetbreakers||6302420839|Y||Y|C000000039|I-Notify Processes|12/16/2014 00:04:19|RODERIC MILLIE|2417 S OLIVE AVE|WEST PALM BEACH|FL|33401||||||
257842|8059|2150643571|1308213|FPL Alert: The outage at 8724 GRAND AVE # DK4 was caused by damaged FPL equipment. Your power should be on. If not try FPL.com/resetbreakers||6302420839|Y||Y|C000000039|I-Notify Processes|12/16/2014 00:04:19|JOANN GUAGLIARDO|8724 GRAND AVE # DK42|PLACIDA|FL|33946||||||
257845|10169|2720540497|1308199|FPL Alert: The outage at 76 LITTLE GASPARILLA was caused by damaged FPL equipment. Your power should be on. If not try FPL.com/resetbreakers||6302420839|Y||Y|C000000039|I-Notify Processes|12/16/2014 00:04:19|FRANK MAY|76 LITTLE GASPARILLA ISLAND # DK42|PLACIDA|FL|33946||||||
257853|32337|8668027116|1196781|FPL Alert: The outage at 910 TANGLED OAKS DR was caused by damaged FPL equipment. Your power should be on. If not try FPL.com/resetbreakers||6302420839|Y||Y|C000000039|I-Notify Processes|12/16/2014 00:04:19|RYAN SCHRAG|910 TANGLED OAKS DR|SARASOTA|FL|34232||||||
257870|17084|4558523199|1926714|FPL Alert: The outage at 3060 SW 4TH ST was caused by damaged FPL equipment. Your power should be on. If not try FPL.com/resetbreakers||6302420839|Y||Y|C000000039|I-Notify Processes|12/16/2014 00:04:19|CLAUDIA JARMILLO|3060 SW 4TH ST|DEERFIELD BEACH|FL|33442||||||
257911|29439|7903797103|1046068|FPL Alert: The outage at 7148 BLANQUILLA CT A was caused by damaged FPL equipment. Your power should be on. If not try FPL.com/resetbreakers||6302420839|Y||Y|C000000039|I-Notify Processes|12/16/2014 00:04:19|DONALD BARTHEL|7148 BLANQUILLA CT APT 4|FORT MYERS|FL|33908||||||
257916|36745|9880958013|1046061|FPL Alert: The outage at 7156 BLANQUILLA CT A was caused by damaged FPL equipment. Your power should be on. If not try FPL.com/resetbreakers||6302420839|Y||Y|C000000039|I-Notify Processes|12/16/2014 00:04:19|ARIEL LAWRENCE|7156 BLANQUILLA CT APT 11|FORT MYERS|FL|33908||||||
257924|27645|7393635185|1046064|FPL Alert: The outage at 7152 BLANQUILLA CT A was caused by damaged FPL equipment. Your power should be on. If not try FPL.com/resetbreakers||6302420839|Y||Y|C000000039|I-Notify Processes|12/16/2014 00:04:19|DANIEL VANOUYTSEL|7152 BLANQUILLA CT APT 8|FORT MYERS|FL|33908||||||
257930|27456|7339291192|2547671|FPL Alert: Power is out at 337 SW 5TH AVE APT 2. There are 35 customers affected. We expect power to be back on at 7:45 PM 11/19. Updates at FPL.com/outage||6302420839|Y||Y|C000000039|I-Notify Processes|12/16/2014 00:04:19|ARMANDO CALVO|337 SW 5TH AVE APT 2|MIAMI|FL|33130||||||
257931|23680|6300718035|974492601|FPL Alert: Restoration specialist is en route to 9360 90TH AVE STE 10. We expect power to be back on at 6:30 PM 11/19. Updates at FPL.com/outage||6302420839|Y||Y|C000000039|I-Notify Processes|12/16/2014 00:04:19|ANYTIME FITNESS OF SEBASTIAN NULL|9360 90TH AVE STE 107|SEBASTIAN|FL|32958||||||
257947|36300|9750701394|2547676|FPL Alert: Power is out at 315 SW 5TH AVE APT 2. There are 35 customers affected. We expect power to be back on at 7:45 PM 11/19. Updates at FPL.com/outage||6302420839|Y||Y|C000000039|I-Notify Processes|12/16/2014 00:04:19|HENRY MEZA|315 SW 5TH AVE APT 2|MIAMI|FL|33130||||||
257955|5438|1466662457|2547663|FPL Alert: Power is out at 345 SW 5TH AVE APT 1. There are 35 customers affected. We expect power to be back on at 7:45 PM 11/19. Updates at FPL.com/outage||6302420839|Y||Y|C000000039|I-Notify Processes|12/16/2014 00:04:19|JESUS MEDEROS|345 SW 5TH AVE APT 11|MIAMI|FL|33130||||||
257958|108|1122942285|678455704|FPL Alert: Outage Update. Power should be on at 95211 CLUB HOUSE RD. If not try FPL.com/resetbreakers or report it at FPL.com/outage or call 1-800-468-8243||6302420839|Y||Y|C000000039|I-Notify Processes|12/16/2014 00:04:19|AMEILA NATIONAL GOLF CLUB, LLC NULL|95211 CLUB HOUSE RD # CLUB|FERNANDINA BEACH|FL|32034||||||
257958|108|1122942285|678455704|FPL Alert: Outage Update. Power should be on at 95211 CLUB HOUSE RD. If not try FPL.com/resetbreakers or report it at FPL.com/outage or call 1-800-468-8243||6302420839|Y||Y|C000000039|I-Notify Processes|12/16/2014 00:04:19|AMEILA NATIONAL GOLF CLUB, LLC NULL|95211 CLUB HOUSE RD # CLUB|FERNANDINA BEACH|FL|32034||||||
257958|108|1122942285|678455704|FPL Alert: Outage Update. Power should be on at 95211 CLUB HOUSE RD. If not try FPL.com/resetbreakers or report it at FPL.com/outage or call 1-800-468-8243||6302420839|Y||Y|C000000039|I-Notify Processes|12/16/2014 00:04:19|AMEILA NATIONAL GOLF CLUB, LLC NULL|95211 CLUB HOUSE RD # CLUB|FERNANDINA BEACH|FL|32034||||||
257962|7527|2017782190|416803609|FPL Alert: Power is out at 329 SW 5TH AVE # HL. There are 35 customers affected. We expect power to be back on at 7:45 PM 11/19. Updates at FPL.com/outage||6302420839|Y||Y|C000000039|I-Notify Processes|12/16/2014 00:04:19|MAURO SABUGO|329 SW 5TH AVE # HL|MIAMI|FL|33138||||||
257965|5828|1569022443|2547681|FPL Alert: Power is out at 330 SW 5TH AVE # HL. There are 35 customers affected. We expect power to be back on at 7:45 PM 11/19. Updates at FPL.com/outage||6302420839|Y||Y|C000000039|I-Notify Processes|12/16/2014 00:04:19|5211, LLC NULL|330 SW 5TH AVE # HL|MIAMI|FL|33130||||||
257971|19586|5218271137|2122920|FPL Alert: Restoration specialist is en route to 25400 SW 124TH AVE. We expect power to be back on at 8:15 PM 11/19. Updates at FPL.com/outage||6302420839|Y||Y|C000000039|I-Notify Processes|12/16/2014 00:04:19|ILIANA LOUREIRO|25400 SW 124TH AVE|PRINCETON|FL|33032||||||
257972|26764|7147360056|96440606|FPL Alert: Restoration specialist is  in the area working to restore the power to 9360 90TH AVE STE 10 by 6:30 PM 11/19. Updates at FPL.com/outage||6302420839|Y||Y|C000000039|I-Notify Processes|12/16/2014 00:04:19|ANYTIME FITNESS OF SEBASTIAN NULL|9360 90TH AVE STE 109|SEBASTIAN|FL|32958||||||
257979|24893|6619008243|3493170|FPL Alert: The outage at 17587 CYPRESS POINT was caused by damaged FPL equipment. Your power should be on. If not try FPL.com/resetbreakers||6302420839|Y||Y|C000000039|I-Notify Processes|12/16/2014 00:04:19|RICHARD ROBINSON|17587 CYPRESS POINT RD|FORT MYERS|FL|33967||||||
257989|2319|642300214|3344055|FPL Alert: Power is out at 520 CHALLENGER RD. There are 160 customers affected. We expect power to be back on at 6:30 PM 11/19. Updates at FPL.com/outage||6302420839|Y||Y|C000000039|I-Notify Processes|12/16/2014 00:04:19|ADVANCED TECHNOLOGIES WORLDWIDE INC NULL|520 CHALLENGER RD|CAPE CANAVERAL|FL|32920||||||
258007|8755|2336407347|2151160|Alerta FPL: No hay servicio eléctrico en 11831 SW 178TH TER. Hay 8 clientes afectados.Esperamos restablecerlo a las 9:00 PM 11/19. FPL.com/outage||6302420839|Y||Y|C000000039|I-Notify Processes|12/16/2014 00:04:19|MILEYDI CALZADA|11831 SW 178TH TER|MIAMI|FL|33177||||||
258023|16446|4395665112|3057216|FPL Alert: Power is out at 9048 HERRING ST # SC. There are 160 customers affected. We expect power to be back on at 6:30 PM 11/19. Updates at FPL.com/outage||6302420839|Y||Y|C000000039|I-Notify Processes|12/16/2014 00:04:19|CANAVERAL PORT AUTHORITY NULL|9048 HERRING ST # SCP LGHT|CAPE CANAVERAL|FL|32920||||||
258034|9426|2506895370|177049|FPL Alert: Power is out at 8952 N ATLANTIC AVE. There are 160 customers affected. We expect power to be back on at 6:30 PM 11/19. Updates at FPL.com/outage||6302420839|Y||Y|C000000039|I-Notify Processes|12/16/2014 00:04:19|TRANSMONTAIGNE PRODUCT SERVICES INC NULL|8952 N ATLANTIC AVE|CAPE CANAVERAL|FL|32920||||||
258045|23040|6120305039|588942602|FPL Alert: Power is out at 200 GEORGE KING BLVD. There are 160 customers affected. We expect power to be back on at 6:30 PM 11/19. Updates at FPL.com/outage||6302420839|Y||Y|C000000039|I-Notify Processes|12/16/2014 00:04:19|HOOVER PROPERTY CANAVERAL L NULL|200 GEORGE KING BLVD|CAPE CANAVERAL|FL|32920||||||
258052|2509|702139155|177119|FPL Alert: Power is out at 757 SCALLOP DR. There are 160 customers affected. We expect power to be back on at 6:30 PM 11/19. Updates at FPL.com/outage||6302420839|Y||Y|C000000039|I-Notify Processes|12/16/2014 00:04:19|DIVERSIFIED HOLDINGS NULL|757 SCALLOP DR|CAPE CANAVERAL|FL|32920||||||
258057|20797|5543230154|177067|FPL Alert: Power is out at 9028 HERRING ST # RE. There are 160 customers affected. We expect power to be back on at 6:30 PM 11/19. Updates at FPL.com/outage||6302420839|Y||Y|C000000039|I-Notify Processes|12/16/2014 00:04:19|AMBASSADOR SERVICES INC NULL|9028 HERRING ST # REFRIGERATION|CAPE CANAVERAL|FL|32920||||||
258062|13986|3738576408|177120|FPL Alert: Power is out at 739 SCALLOP DR STE 1. There are 160 customers affected. We expect power to be back on at 6:30 PM 11/19. Updates at FPL.com/outage||6302420839|Y||Y|C000000039|I-Notify Processes|12/16/2014 00:04:19|FRED HILLMAN|739 SCALLOP DR STE 17|CAPE CANAVERAL|FL|32920||||||
258066|36088|9695145426|2732696|FPL Alert: Power is out at 760 MULLET RD. There are 160 customers affected. We expect power to be back on at 6:30 PM 11/19. Updates at FPL.com/outage||6302420839|Y||Y|C000000039|I-Notify Processes|12/16/2014 00:04:19|DIVERSIFIED HOLDINGS OF CANAVERAL INC NULL|760 MULLET RD|CAPE CANAVERAL|FL|32920||||||
258075|17010|4541788594|538158058|FPL Alert: Power is out at 9105 N ATLANTIC AVE. There are 160 customers affected. We expect power to be back on at 6:30 PM 11/19. Updates at FPL.com/outage||6302420839|Y||Y|C000000039|I-Notify Processes|12/16/2014 00:04:19|CANAVERAL PORT AUTHORITY NULL|9105 N ATLANTIC AVE #GRD BOOTH|CAPE CANAVERAL|FL|32920||||||
258079|15356|4103078491|177110|FPL Alert: Power is out at 710 BLUEWATER DR. There are 160 customers affected. We expect power to be back on at 6:30 PM 11/19. Updates at FPL.com/outage||6302420839|Y||Y|C000000039|I-Notify Processes|12/16/2014 00:04:19|CAPE CANAVERAL SHRIMP COMPANY INC NULL|710 BLUEWATER DR|CAPE CANAVERAL|FL|32920||||||
258081|381|99779357|629260704|FPL Alert: Power is out at 620 GLEN CHEEK DR #. There are 160 customers affected. We expect power to be back on at 6:30 PM 11/19. Updates at FPL.com/outage||6302420839|Y||Y|C000000039|I-Notify Processes|12/16/2014 00:04:19|CANAVERAL PORT AUTHORITY NULL|620 GLEN CHEEK DR # MAINT|CAPE CANAVERAL|FL|32920||||||
258081|381|99779357|629260704|FPL Alert: Power is out at 620 GLEN CHEEK DR #. There are 160 customers affected. We expect power to be back on at 6:30 PM 11/19. Updates at FPL.com/outage||6302420839|Y||Y|C000000039|I-Notify Processes|12/16/2014 00:04:19|CANAVERAL PORT AUTHORITY NULL|620 GLEN CHEEK DR # MAINT|CAPE CANAVERAL|FL|32920||||||
258081|381|99779357|629260704|FPL Alert: Power is out at 620 GLEN CHEEK DR #. There are 160 customers affected. We expect power to be back on at 6:30 PM 11/19. Updates at FPL.com/outage||6302420839|Y||Y|C000000039|I-Notify Processes|12/16/2014 00:04:19|CANAVERAL PORT AUTHORITY NULL|620 GLEN CHEEK DR # MAINT|CAPE CANAVERAL|FL|32920||||||
258083|8286|2207981164|613171845|FPL Alert: Power is out at 9111 N ATLANTIC AVE. There are 160 customers affected. We expect power to be back on at 6:30 PM 11/19. Updates at FPL.com/outage||6302420839|Y||Y|C000000039|I-Notify Processes|12/16/2014 00:04:19|CANAVERAL PORT AUTHORITY NULL|9111 N ATLANTIC AVE # PUBLIC SAFETY BLDG|CAPE CANAVERAL|FL|32920||||||
258109|20607|5495728064|170082034|FPL Alert: Power is out at 745 SCALLOP DR STE C. There are 160 customers affected. We expect power to be back on at 6:30 PM 11/19. Updates at FPL.com/outage||6302420839|Y||Y|C000000039|I-Notify Processes|12/16/2014 00:04:19|EXCELL COATINGS NULL|745 SCALLOP DR STE C|CAPE CANAVERAL|FL|32920||||||
258116|16099|4295785127|660523038|FPL Alert: Power is out at 105 GLEN CHEEK DR #. There are 160 customers affected. We expect power to be back on at 6:30 PM 11/19. Updates at FPL.com/outage||6302420839|Y||Y|C000000039|I-Notify Processes|12/16/2014 00:04:19|CANAVERAL PILOTS ASSOCIATION NULL|105 GLEN CHEEK DR # TRLR|CAPE CANAVERAL|FL|32920||||||
258119|21027|5601203226|177077|FPL Alert: Power is out at 200 GEORGE KING BLVD. There are 160 customers affected. We expect power to be back on at 6:30 PM 11/19. Updates at FPL.com/outage||6302420839|Y||Y|C000000039|I-Notify Processes|12/16/2014 00:04:19|CANAVERAL PORT AUTHORITY NULL|200 GEORGE KING BLVD # LS|CAPE CANAVERAL|FL|32920||||||
258121|33032|8857007317|902740212|FPL Alert: Power is out at 200 CHRISTOPHER COLU. There are 160 customers affected. We expect power to be back on at 6:30 PM 11/19. Updates at FPL.com/outage||6302420839|Y||Y|C000000039|I-Notify Processes|12/16/2014 00:04:19|CANAVERAL PORT AUTHORITY NULL|200 CHRISTOPHER COLUMBUS DR|CAPE CANAVERAL|FL|32920||||||
258129|36253|9739577873|2151156|FPL Alert: Power is out at 11871 SW 178TH TER. There are 8 customers affected. We expect power to be back on at 9:00 PM 11/19. Updates at FPL.com/outage||6302420839|Y||Y|C000000039|I-Notify Processes|12/16/2014 00:04:19|GLADYS ARANGO|11871 SW 178TH TER|MIAMI|FL|33177||||||
258139|7934|2118602321|597203543|FPL Alert: Power is out at 1010 SHOREWOOD DR #. There are 160 customers affected. We expect power to be back on at 6:30 PM 11/19. Updates at FPL.com/outage||6302420839|Y||Y|C000000039|I-Notify Processes|12/16/2014 00:04:19|CAPE CARIBE ASSOC INC NULL|1010 SHOREWOOD DR # GARAGE|CAPE CANAVERAL|FL|32920||||||
258155|32029|8579338438|3406537|FPL Alert: Power is out at 530 CHALLENGER RD. There are 160 customers affected. We expect power to be back on at 6:30 PM 11/19. Updates at FPL.com/outage||6302420839|Y||Y|C000000039|I-Notify Processes|12/16/2014 00:04:19|PAMELA CASTRO|530 CHALLENGER RD|CAPE CANAVERAL|FL|32920||||||
258167|35479|9518362117|3033725|FPL Alert: Power is out at 9008 MARLIN ST # WHS. There are 160 customers affected. We expect power to be back on at 6:30 PM 11/19. Updates at FPL.com/outage||6302420839|Y||Y|C000000039|I-Notify Processes|12/16/2014 00:04:19|FALCON MARINE LLC NULL|9008 MARLIN ST # WHSE|CAPE CANAVERAL|FL|32920||||||
258180|24038|6400860547|177094|FPL Alert: Outage Update. Power should be on at 520 GLEN CHEEK DR. If not try FPL.com/resetbreakers or report it at FPL.com/outage or call 1-800-468-8243||6302420839|Y||Y|C000000039|I-Notify Processes|12/16/2014 00:04:19|SEAFOOD ATLANTIC NULL|520 GLEN CHEEK DR|CAPE CANAVERAL|FL|32920||||||
258181|6132|1650364068|227521902|FPL Alert: Outage Update. Power should be on at 1000 SHOREWOOD DR #. If not try FPL.com/resetbreakers or report it at FPL.com/outage or call 1-800-468-8243||6302420839|Y||Y|C000000039|I-Notify Processes|12/16/2014 00:04:19|RON JON HOSPITALITY INC NULL|1000 SHOREWOOD DR # E|CAPE CANAVERAL|FL|32920||||||
258190|13368|3568407443|177098|FPL Alert: Outage Update. Power should be on at 525 GLEN CHEEK DR. If not try FPL.com/resetbreakers or report it at FPL.com/outage or call 1-800-468-8243||6302420839|Y||Y|C000000039|I-Notify Processes|12/16/2014 00:04:19|SMOKEHOUSE FOODS INC NULL|525 GLEN CHEEK DR|CAPE CANAVERAL|FL|32920||||||
258193|5538|1490694195|158148208|FPL Alert: The outage at 2 CEDAR HOLLOW CT was caused by damaged FPL equipment. Your power should be on. If not try FPL.com/resetbreakers||6302420839|Y||Y|C000000039|I-Notify Processes|12/16/2014 00:04:19|PAULO VELADO|2 CEDAR HOLLOW CT|PALM COAST|FL|32137||||||
258198|36046|9683713219|758901556|FPL Alert: Outage Update. Power should be on at 726 SCALLOP DR # TRL. If not try FPL.com/resetbreakers or report it at FPL.com/outage or call 1-800-468-8243||6302420839|Y||Y|C000000039|I-Notify Processes|12/16/2014 00:04:19|YACHT MASTERS YACH BROKERS INC NULL|726 SCALLOP DR # TRLR|CAPE CANAVERAL|FL|32920||||||
258208|9047|2400748071|766651416|FPL Alert: The outage at 102 GEORGE KING BLVD was caused by something that requires further analysis. Your power should be on. If not try FPL.com/resetbreakers||6302420839|Y||Y|C000000039|I-Notify Processes|12/16/2014 00:04:19|CANAVERAL PORT AUTHORITY NULL|102 GEORGE KING BLVD|CAPE CANAVERAL|FL|32920||||||
258217|13886|3714104530|177070|FPL Alert: Outage Update. Power should be on at 9042 HERRING ST # BA. If not try FPL.com/resetbreakers or report it at FPL.com/outage or call 1-800-468-8243||6302420839|Y||Y|C000000039|I-Notify Processes|12/16/2014 00:04:19|AMBASSADOR SERVICES INC NULL|9042 HERRING ST # BATTERY CHARGERS|CAPE CANAVERAL|FL|32920||||||
258221|19661|5240708353|152207959|FPL Alert: Outage Update. Power should be on at 1000 SHOREWOOD DR #. If not try FPL.com/resetbreakers or report it at FPL.com/outage or call 1-800-468-8243||6302420839|Y||Y|C000000039|I-Notify Processes|12/16/2014 00:04:19|CAPE CARIBE ASSOC INC NULL|1000 SHOREWOOD DR # A|CAPE CANAVERAL|FL|32920||||||
258222|27742|7424381114|3033724|FPL Alert: Outage Update. Power should be on at 9008 MARLIN ST # OFF. If not try FPL.com/resetbreakers or report it at FPL.com/outage or call 1-800-468-8243||6302420839|Y||Y|C000000039|I-Notify Processes|12/16/2014 00:04:19|FALCON MARINE LLC NULL|9008 MARLIN ST # OFFICE|CAPE CANAVERAL|FL|32920||||||
258226|669|182927129|177048|FPL Alert: The outage at 8954 N ATLANTIC AVE was caused by something that requires further analysis. Your power should be on. If not try FPL.com/resetbreakers||6302420839|Y||Y|C000000039|I-Notify Processes|12/16/2014 00:04:19|TRANSMONTAIGNE PRODUCT SERVICES INC NULL|8954 N ATLANTIC AVE # EAST TERM|CAPE CANAVERAL|FL|32920||||||
258229|28046|7514128581|403378426|FPL Alert: Outage Update. Power should be on at 722 SCALLOP DR. If not try FPL.com/resetbreakers or report it at FPL.com/outage or call 1-800-468-8243||6302420839|Y||Y|C000000039|I-Notify Processes|12/16/2014 00:04:19|CANAVERAL PORT AUTHORITY NULL|722 SCALLOP DR|CAPE CANAVERAL|FL|32920||||||
258234|6010|1619975194|177051|FPL Alert: Outage Update. Power should be on at 9035 CAMPGROUND CIR. If not try FPL.com/resetbreakers or report it at FPL.com/outage or call 1-800-468-8243||6302420839|Y||Y|C000000039|I-Notify Processes|12/16/2014 00:04:19|CANAVERAL PORT AUTHORITY NULL|9035 CAMPGROUND CIR # CAMPSTORE|CAPE CANAVERAL|FL|32920||||||
258247|685|6757187544|493815321|FPL Alert: Outage Update. Power should be on at 745 SCALLOP DR STE A. If not try FPL.com/resetbreakers or report it at FPL.com/outage or call 1-800-468-8243||6302420839|Y||Y|C000000039|I-Notify Processes|12/16/2014 00:04:19|EXCELL COATINGS NULL|745 SCALLOP DR STE A|CAPE CANAVERAL|FL|32920||||||
258247|685|6757187544|493815321|FPL Alert: Outage Update. Power should be on at 745 SCALLOP DR STE A. If not try FPL.com/resetbreakers or report it at FPL.com/outage or call 1-800-468-8243||6302420839|Y||Y|C000000039|I-Notify Processes|12/16/2014 00:04:19|EXCELL COATINGS NULL|745 SCALLOP DR STE A|CAPE CANAVERAL|FL|32920||||||
258247|685|6757187544|493815321|FPL Alert: Outage Update. Power should be on at 745 SCALLOP DR STE A. If not try FPL.com/resetbreakers or report it at FPL.com/outage or call 1-800-468-8243||6302420839|Y||Y|C000000039|I-Notify Processes|12/16/2014 00:04:19|EXCELL COATINGS NULL|745 SCALLOP DR STE A|CAPE CANAVERAL|FL|32920||||||
258255|36996|9960800002|411748707|FPL Alert: Outage Update. Power should be on at 739 SCALLOP DR STE 6. If not try FPL.com/resetbreakers or report it at FPL.com/outage or call 1-800-468-8243||6302420839|Y||Y|C000000039|I-Notify Processes|12/16/2014 00:04:19|FREDRICK THOMPSON|739 SCALLOP DR STE 61|CAPE CANAVERAL|FL|32920||||||
258257|18809|5017859090|3215358|FPL Alert: Outage Update. Power should be on at 720 MULLET RD # G HS. If not try FPL.com/resetbreakers or report it at FPL.com/outage or call 1-800-468-8243||6302420839|Y||Y|C000000039|I-Notify Processes|12/16/2014 00:04:19|LOCKHEED MARTIN TECH OPS NULL|720 MULLET RD # G HSE|CAPE CANAVERAL|FL|32920||||||
258260|35363|9487151202|469589854|FPL Alert: Outage Update. Power should be on at 523 GLEN CHEEK DR. If not try FPL.com/resetbreakers or report it at FPL.com/outage or call 1-800-468-8243||6302420839|Y||Y|C000000039|I-Notify Processes|12/16/2014 00:04:19|MJTB, LLC/DBA MARCO & CINTA AUDDINO ITALIAN BAKER NULL|523 GLEN CHEEK DR|CAPE CANAVERAL|FL|32920||||||
258283|8416|2246157123|177050|FPL Alert: Outage Update. Power should be on at 8952 N ATLANTIC AVE. If not try FPL.com/resetbreakers or report it at FPL.com/outage or call 1-800-468-8243||6302420839|Y||Y|C000000039|I-Notify Processes|12/16/2014 00:04:19|TRANSMONTAIGNE PRODUCT SERVICES INC NULL|8952 N ATLANTIC AVE # OFFICE|CAPE CANAVERAL|FL|32920||||||
258287|34869|9343179009|949221359|FPL Alert: Outage Update. Power should be on at 230 CHRISTOPHER COLU. If not try FPL.com/resetbreakers or report it at FPL.com/outage or call 1-800-468-8243||6302420839|Y||Y|C000000039|I-Notify Processes|12/16/2014 00:04:19|CANAVERAL PORT AUTHORITY NULL|230 CHRISTOPHER COLUMBUS DR # CT4BAGGAGE|CAPE CANAVERAL|FL|32920||||||
258303|21825|5826592197|60160124|FPL Alert: Outage Update. Power should be on at 739 SCALLOP DR STE 6. If not try FPL.com/resetbreakers or report it at FPL.com/outage or call 1-800-468-8243||6302420839|Y||Y|C000000039|I-Notify Processes|12/16/2014 00:04:19|KATHRYN KING|739 SCALLOP DR STE 66|CAPE CANAVERAL|FL|32920||||||
258305|18516|4948670544|177062|FPL Alert: Outage Update. Power should be on at 9049 CHRISTOPHER COL. If not try FPL.com/resetbreakers or report it at FPL.com/outage or call 1-800-468-8243||6302420839|Y||Y|C000000039|I-Notify Processes|12/16/2014 00:04:19|CREWS INN NULL|9049 CHRISTOPHER COLUMBUS DR # SAND SH|CAPE CANAVERAL|FL|32920||||||
258313|23635|6285652373|915476702|FPL Alert: Outage Update. Power should be on at 726 SCALLOP DR # DOC. If not try FPL.com/resetbreakers or report it at FPL.com/outage or call 1-800-468-8243||6302420839|Y||Y|C000000039|I-Notify Processes|12/16/2014 00:04:19|BLUEPOINTS INTERNATIONAL FISHERIES INC NULL|726 SCALLOP DR # DOCK 1|CAPE CANAVERAL|FL|32920||||||
258320|659|6460212407|401374204|FPL Alert: Outage Update. Power should be on at 9001 MARLIN ST # OFF. If not try FPL.com/resetbreakers or report it at FPL.com/outage or call 1-800-468-8243||6302420839|Y||Y|C000000039|I-Notify Processes|12/16/2014 00:04:19|AMBASSADOR SERVICES INC NULL|9001 MARLIN ST # OFFICE|CAPE CANAVERAL|FL|32920||||||
258320|659|6460212407|401374204|FPL Alert: Outage Update. Power should be on at 9001 MARLIN ST # OFF. If not try FPL.com/resetbreakers or report it at FPL.com/outage or call 1-800-468-8243||6302420839|Y||Y|C000000039|I-Notify Processes|12/16/2014 00:04:19|AMBASSADOR SERVICES INC NULL|9001 MARLIN ST # OFFICE|CAPE CANAVERAL|FL|32920||||||
258320|659|6460212407|401374204|FPL Alert: Outage Update. Power should be on at 9001 MARLIN ST # OFF. If not try FPL.com/resetbreakers or report it at FPL.com/outage or call 1-800-468-8243||6302420839|Y||Y|C000000039|I-Notify Processes|12/16/2014 00:04:19|AMBASSADOR SERVICES INC NULL|9001 MARLIN ST # OFFICE|CAPE CANAVERAL|FL|32920||||||
258325|17284|4604209231|3702647|FPL Alert: Outage Update. Power should be on at 8954 N ATLANTIC AVE. If not try FPL.com/resetbreakers or report it at FPL.com/outage or call 1-800-468-8243||6302420839|Y||Y|C000000039|I-Notify Processes|12/16/2014 00:04:19|CITY GAS CO OF FLA NULL|8954 N ATLANTIC AVE # GAS|CAPE CANAVERAL|FL|32920||||||
258348|12382|3322219407|683206|FPL Alert: Power is out at 904 E TIFFANY DR APT. We expect power to be back on at 8:15 PM 11/19. Updates at FPL.com/outage||6302420839|Y||Y|C000000039|I-Notify Processes|12/16/2014 00:04:19|SHARON CLEGG|904 E TIFFANY DR APT 4|WEST PALM BEACH|FL|33407||||||
258356|25427|6778528361|683194|FPL Alert: Power is out at 900 E TIFFANY DR # H. We expect power to be back on at 8:15 PM 11/19. Updates at FPL.com/outage||6302420839|Y||Y|C000000039|I-Notify Processes|12/16/2014 00:04:19|TIFFANY LAKE ASSOC INC NULL|900 E TIFFANY DR # HSE|WEST PALM BEACH|FL|33407||||||
258374|29404|7894196257|108621742|FPL Alert: The outage at 11110 HARBOUR YACHT was caused by damaged FPL equipment. Your power should be on. If not try FPL.com/resetbreakers||6302420839|Y||Y|C000000039|I-Notify Processes|12/16/2014 00:04:19|COMCAST OF PANAMA CITY INC NULL|11110 HARBOUR YACHT CT # CATV|FORT MYERS|FL|33908||||||
258376|25603|6826089093|2539037|FPL Alert: The outage at 8025 NW 13TH AVE was caused by damaged FPL equipment. Your power should be on. If not try FPL.com/resetbreakers||6302420839|Y||Y|C000000039|I-Notify Processes|12/16/2014 00:04:19|MALINDA CLEMONS|8025 NW 13TH AVE|MIAMI|FL|33147||||||
258379|21247|5664071528|45467900|FPL Alert: The outage at 11109 HARBOUR ESTATE was caused by damaged FPL equipment. Your power should be on. If not try FPL.com/resetbreakers||6302420839|Y||Y|C000000039|I-Notify Processes|12/16/2014 00:04:19|LEONARD HALL|11109 HARBOUR ESTATES CIR|FORT MYERS|FL|33908||||||
258385|21355|5694622084|281525004|FPL Alert: The outage at 11129 HARBOUR ESTATE was caused by damaged FPL equipment. Your power should be on. If not try FPL.com/resetbreakers||6302420839|Y||Y|C000000039|I-Notify Processes|12/16/2014 00:04:19|WILLIAM BURGESS|11129 HARBOUR ESTATES CIR|FORT MYERS|FL|33908||||||
258386|28466|7619029353|71373608|FPL Alert: The outage at 11121 HARBOUR ESTATE was caused by damaged FPL equipment. Your power should be on. If not try FPL.com/resetbreakers||6302420839|Y||Y|C000000039|I-Notify Processes|12/16/2014 00:04:19|GEORGE MARKOVICH|11121 HARBOUR ESTATES CIR|FORT MYERS|FL|33908||||||
258409|28085|7523545510|869014909|FPL Alert: The outage at 11110 HARBOUR YACHT was caused by damaged FPL equipment. Your power should be on. If not try FPL.com/resetbreakers||6302420839|Y||Y|C000000039|I-Notify Processes|12/16/2014 00:04:19|KEVIN KING|11110 HARBOUR YACHT CT APT 32C|FORT MYERS|FL|33908||||||
258414|9601|2553668399|564887313|FPL Alert: The outage at 11100 HARBOUR YACHT was caused by damaged FPL equipment. Your power should be on. If not try FPL.com/resetbreakers||6302420839|Y||Y|C000000039|I-Notify Processes|12/16/2014 00:04:19|FRANCES BERST|11100 HARBOUR YACHT CT APT 42B|FORT MYERS|FL|33908||||||
258416|6644|1794455061|517250851|FPL Alert: The outage at 11120 HARBOUR YACHT was caused by damaged FPL equipment. Your power should be on. If not try FPL.com/resetbreakers||6302420839|Y||Y|C000000039|I-Notify Processes|12/16/2014 00:04:19|NANCY THOMSEN|11120 HARBOUR YACHT CT APT 22B|FORT MYERS|FL|33908||||||
258430|11950|3181843271|803509909|FPL Alert: The outage at 11110 HARBOUR YACHT was caused by damaged FPL equipment. Your power should be on. If not try FPL.com/resetbreakers||6302420839|Y||Y|C000000039|I-Notify Processes|12/16/2014 00:04:19|GERALDINE CORNOG|11110 HARBOUR YACHT CT APT 32E|FORT MYERS|FL|33908||||||
258444|31515|8440167586|396973104|FPL Alert: The outage at 11136 HARBOUR ESTATE was caused by damaged FPL equipment. Your power should be on. If not try FPL.com/resetbreakers||6302420839|Y||Y|C000000039|I-Notify Processes|12/16/2014 00:04:19|SUSAN LEMAY|11136 HARBOUR ESTATES CIR|FORT MYERS|FL|33908||||||
258453|2770|780717021|734236953|FPL Alert: The outage at 11137 HARBOUR ESTATE was caused by damaged FPL equipment. Your power should be on. If not try FPL.com/resetbreakers||6302420839|Y||Y|C000000039|I-Notify Processes|12/16/2014 00:04:19|DANA SNYDER|11137 HARBOUR ESTATES CIR|FORT MYERS|FL|33908||||||
258454|9777|2602268449|343162913|FPL Alert: The outage at 11100 HARBOUR YACHT was caused by damaged FPL equipment. Your power should be on. If not try FPL.com/resetbreakers||6302420839|Y||Y|C000000039|I-Notify Processes|12/16/2014 00:04:19|JO CALLAWAY|11100 HARBOUR YACHT CT APT 44C|FORT MYERS|FL|33908||||||
258457|4005|1090024058|2854621|FPL Alert: The outage at 1611 MOUNT VERNON DR was caused by damaged FPL equipment. Your power should be on. If not try FPL.com/resetbreakers||6302420839|Y||Y|C000000039|I-Notify Processes|12/16/2014 00:04:19|GERALDINE ESCHMENT|1611 MOUNT VERNON DR|NAPLES|FL|34110||||||
258472|36611|9836497058|214608956|FPL Alert: Power is out at 102 CEDAR RD. There are 25 customers affected. We expect power to be back on at 8:15 PM 11/19. Updates at FPL.com/outage||6302420839|Y||Y|C000000039|I-Notify Processes|12/16/2014 00:04:19|ROCHELLE SPELLS|102 CEDAR RD|EAST PALATKA|FL|32131||||||
258473|22056|5890701559|3200240|FPL Alert: Power is out at 115 STONE. There are 25 customers affected. We expect power to be back on at 8:15 PM 11/19. Updates at FPL.com/outage||6302420839|Y||Y|C000000039|I-Notify Processes|12/16/2014 00:04:19|ELISHA MILLER|115 STONE|EAST PALATKA|FL|32131||||||
258487|17047|4550862033|874137505|FPL Alert: The outage at 10081 PERFECT DR was caused by damaged FPL equipment. Your power should be on. If not try FPL.com/resetbreakers||6302420839|Y||Y|C000000039|I-Notify Processes|12/16/2014 00:04:19|DONALD HARRIS|10081 PERFECT DR|PORT SAINT LUCIE|FL|34986||||||
258492|24750|6581082044|328075902|FPL Alert: The outage at 10063 PERFECT DR was caused by damaged FPL equipment. Your power should be on. If not try FPL.com/resetbreakers||6302420839|Y||Y|C000000039|I-Notify Processes|12/16/2014 00:04:19|ROBIN MORGAN|10063 PERFECT DR|PORT SAINT LUCIE|FL|34986||||||
258494|36394|9776834484|41362732|FPL Alert: The outage at 9803 PERFECT DR # PO was caused by damaged FPL equipment. Your power should be on. If not try FPL.com/resetbreakers||6302420839|Y||Y|C000000039|I-Notify Processes|12/16/2014 00:04:19|CONDO ASSOCIATION OF GOLF VILLAS II INC NULL|9803 PERFECT DR # POOL/CABANA|PORT SAINT LUCIE|FL|34986||||||
258568|31728|8505734429|653516|FPL Alert: The outage at 1600 FOREST LAKES CI was caused by a construction crew damaging an FPL line. Your power should be on. If not try FPL.com/resetbreakers||6302420839|Y||Y|C000000039|I-Notify Processes|12/16/2014 00:04:19|CALMY OSTERVAL|1600 FOREST LAKES CIR APT A|WEST PALM BEACH|FL|33406||||||
258577|12214|3268771346|2539001|FPL Alert: Restoration specialist is en route to 8000 NW 12TH PL. We expect power to be back on at 7:30 PM 11/19. Updates at FPL.com/outage||6302420839|Y||Y|C000000039|I-Notify Processes|12/16/2014 00:04:19|ANTHONY MALIOY|8000 NW 12TH PL|MIAMI|FL|33147||||||
258786|28599|7661652409|1665479|FPL Alert: Power is out at 6508 WILEY ST. There are 59 customers affected. We expect power to be back on at 5:15 PM 11/20. Updates at FPL.com/outage||6302420839|Y||Y|C000000039|I-Notify Processes|12/16/2014 00:04:19|RYAN ZAMBORY|6508 WILEY ST|HOLLYWOOD|FL|33023||||||
259052|6604|1783873365|1667151|FPL Alert: Outage Update. Power should be on at 7177 PEMBROKE RD. If not try FPL.com/resetbreakers or report it at FPL.com/outage or call 1-800-468-8243||6302420839|Y||Y|C000000039|I-Notify Processes|12/16/2014 00:04:19|BABA INTERNATIONAL INC NULL|7177 PEMBROKE RD|PEMBROKE PINES|FL|33023||||||
456450|15770|8761081481|2110487|FPL Alert: Restoration specialist is en route to 1 FLAMINGO LODGE HWY. An estimated restoration time is under investigation. Updates at FPL.com/outage||6302420839|Y||Y|C000000039|I-Notify Processes|12/16/2014 00:04:19||1 FLAMINGO LODGE HWY # 441|HOMESTEAD|FL|33034||||||
456450|15770|8761081481|2110487|FPL Alert: Restoration specialist is en route to 1 FLAMINGO LODGE HWY. An estimated restoration time is under investigation. Updates at FPL.com/outage||6302420839|Y||Y|C000000039|I-Notify Processes|12/16/2014 00:04:19||1 FLAMINGO LODGE HWY # 441|HOMESTEAD|FL|33034||||||
456451|7333|4033732308|622358|FPL Alert: Restoration specialist is working to restore 2337 NW PINE LAKE DR. An estimated restoration time is under investigation. Updates at FPL.com/outage||6302420839|Y||Y|C000000039|I-Notify Processes|12/16/2014 00:04:19|RUSSELL BURRELL|2337 NW PINE LAKE DR|STUART|FL|34994||||||
456451|7333|4033732308|622358|FPL Alert: Restoration specialist is working to restore 2337 NW PINE LAKE DR. An estimated restoration time is under investigation. Updates at FPL.com/outage||6302420839|Y||Y|C000000039|I-Notify Processes|12/16/2014 00:04:19|RUSSELL BURRELL|2337 NW PINE LAKE DR|STUART|FL|34994||||||
456452|1963|1096689383|421619|FPL Alert: Additional resources sent to restore power to 279 NE 30TH ST. An estimated restoration time is under investigation. Updates at FPL.com/outage||6302420839|Y||Y|C000000039|I-Notify Processes|12/16/2014 00:04:19|LESLIE KOSTKA|279 NE 30TH ST|BOCA RATON|FL|33431||||||
456452|1963|1096689383|421619|FPL Alert: Additional resources sent to restore power to 279 NE 30TH ST. An estimated restoration time is under investigation. Updates at FPL.com/outage||6302420839|Y||Y|C000000039|I-Notify Processes|12/16/2014 00:04:19|LESLIE KOSTKA|279 NE 30TH ST|BOCA RATON|FL|33431||||||
456453|6553|3632120469|451593947|FPL Alert: Additional resources sent to restore power to 4247 S INDIAN RIVER. An estimated restoration time is under investigation. Updates at FPL.com/outage||6302420839|Y||Y|C000000039|I-Notify Processes|12/16/2014 00:04:19|ELLEN WERTHEIM|4247 S INDIAN RIVER DR # FRNT HSE|FORT PIERCE|FL|34982||||||
456453|6553|3632120469|451593947|FPL Alert: Additional resources sent to restore power to 4247 S INDIAN RIVER. An estimated restoration time is under investigation. Updates at FPL.com/outage||6302420839|Y||Y|C000000039|I-Notify Processes|12/16/2014 00:04:19|ELLEN WERTHEIM|4247 S INDIAN RIVER DR # FRNT HSE|FORT PIERCE|FL|34982||||||
456454|730|7113893395|351474511|FPL Alert: Additional resources sent to restore power to 226 RIDGEVIEW DR. An estimated restoration time is under investigation. Updates at FPL.com/outage||6302420839|Y||Y|C000000039|I-Notify Processes|12/16/2014 00:04:19|ROBERT SADLER|226 RIDGEVIEW DR|PALM BEACH|FL|33480||||||
456454|730|7113893395|351474511|FPL Alert: Additional resources sent to restore power to 226 RIDGEVIEW DR. An estimated restoration time is under investigation. Updates at FPL.com/outage||6302420839|Y||Y|C000000039|I-Notify Processes|12/16/2014 00:04:19|ROBERT SADLER|226 RIDGEVIEW DR|PALM BEACH|FL|33480||||||
456455|2668|1483339451|554730|FPL Alert: Additional resources sent to restore power to 424 SE 6TH ST. An estimated restoration time is under investigation. Updates at FPL.com/outage||6302420839|Y||Y|C000000039|I-Notify Processes|12/16/2014 00:04:19|RAY WORLEY|424 SE 6TH ST|OKEECHOBEE|FL|34974||||||
456455|2668|1483339451|554730|FPL Alert: Additional resources sent to restore power to 424 SE 6TH ST. An estimated restoration time is under investigation. Updates at FPL.com/outage||6302420839|Y||Y|C000000039|I-Notify Processes|12/16/2014 00:04:19|RAY WORLEY|424 SE 6TH ST|OKEECHOBEE|FL|34974||||||
456456|7604|4210588556|2531015|Alerta FPL: Enviamos recursos adicionales para restablecer servicio a 221 NW 67TH CT. Tiempo de restablecimiento est. bajo investigación. FPL.com/outage||6302420839|Y||Y|C000000039|I-Notify Processes|12/16/2014 00:04:19|EDITA LEYVA|221 NW 67TH CT|MIAMI|FL|33126||||||
456456|7604|4210588556|2531015|Alerta FPL: Enviamos recursos adicionales para restablecer servicio a 221 NW 67TH CT. Tiempo de restablecimiento est. bajo investigación. FPL.com/outage||6302420839|Y||Y|C000000039|I-Notify Processes|12/16/2014 00:04:19|EDITA LEYVA|221 NW 67TH CT|MIAMI|FL|33126||||||
456457|5090|2780052128|313296|FPL Alert: Restoration crew is en route to restore2736 RIDGEWOOD AVE A. An estimated restoration time is under investigation. Updates at FPL.com/outage||6302420839|Y||Y|C000000039|I-Notify Processes|12/16/2014 00:04:19|WILLISTINE RIVERS|2736 RIDGEWOOD AVE APT 41|SANFORD|FL|32773||||||
456457|5090|2780052128|313296|FPL Alert: Restoration crew is en route to restore2736 RIDGEWOOD AVE A. An estimated restoration time is under investigation. Updates at FPL.com/outage||6302420839|Y||Y|C000000039|I-Notify Processes|12/16/2014 00:04:19|WILLISTINE RIVERS|2736 RIDGEWOOD AVE APT 41|SANFORD|FL|32773||||||
456458|12168|6728475176|2670132|FPL Alert: Restoration crew is en route to restore3857 NW 213TH ST. An estimated restoration time is under investigation. Updates at FPL.com/outage||6302420839|Y||Y|C000000039|I-Notify Processes|12/16/2014 00:04:19|TYRONE NELMS|3857 NW 213TH ST|MIAMI GARDENS|FL|33055||||||
456458|12168|6728475176|2670132|FPL Alert: Restoration crew is en route to restore3857 NW 213TH ST. An estimated restoration time is under investigation. Updates at FPL.com/outage||6302420839|Y||Y|C000000039|I-Notify Processes|12/16/2014 00:04:19|TYRONE NELMS|3857 NW 213TH ST|MIAMI GARDENS|FL|33055||||||
456459|12703|6990162049|355148127|FPL Alert: Restoration crew is en route to restore7200 SE LEXINGTON AV. An estimated restoration time is under investigation. Updates at FPL.com/outage||6302420839|Y||Y|C000000039|I-Notify Processes|12/16/2014 00:04:19||7200 SE LEXINGTON AVE # ADEL|HOBE SOUND|FL|33455||||||
456459|12703|6990162049|355148127|FPL Alert: Restoration crew is en route to restore7200 SE LEXINGTON AV. An estimated restoration time is under investigation. Updates at FPL.com/outage||6302420839|Y||Y|C000000039|I-Notify Processes|12/16/2014 00:04:19||7200 SE LEXINGTON AVE # ADEL|HOBE SOUND|FL|33455||||||
456460|1748|967371345|128412309|FPL Alert: Restoration crew is en route to restore6125 SW 63RD ST APT. An estimated restoration time is under investigation. Updates at FPL.com/outage||6302420839|Y||Y|C000000039|I-Notify Processes|12/16/2014 00:04:19|RITA AVILES|6125 SW 63RD ST APT 2|SOUTH MIAMI|FL|33143||||||
456460|1748|967371345|128412309|FPL Alert: Restoration crew is en route to restore6125 SW 63RD ST APT. An estimated restoration time is under investigation. Updates at FPL.com/outage||6302420839|Y||Y|C000000039|I-Notify Processes|12/16/2014 00:04:19|RITA AVILES|6125 SW 63RD ST APT 2|SOUTH MIAMI|FL|33143||||||
456461|3742|2050014022|485219357|FPL Alert: Restoration crew is en route to restore6165 SW 63RD ST APT. An estimated restoration time is under investigation. Updates at FPL.com/outage||6302420839|Y||Y|C000000039|I-Notify Processes|12/16/2014 00:04:19|JOSE RODRIGUEZ|6165 SW 63RD ST APT 1|SOUTH MIAMI|FL|33143||||||
456461|3742|2050014022|485219357|FPL Alert: Restoration crew is en route to restore6165 SW 63RD ST APT. An estimated restoration time is under investigation. Updates at FPL.com/outage||6302420839|Y||Y|C000000039|I-Notify Processes|12/16/2014 00:04:19|JOSE RODRIGUEZ|6165 SW 63RD ST APT 1|SOUTH MIAMI|FL|33143||||||
456495|14129|7796908247|424140|FPL Alert: Restoration crew is en route to restore2424 DORSON WAY. An estimated restoration time is under investigation. Updates at FPL.com/outage||6302420839|Y||Y|C000000039|I-Notify Processes|12/16/2014 00:04:19|MARCELIN PIERREJULES|2424 DORSON WAY|DELRAY BEACH|FL|33445||||||
456495|14129|7796908247|424140|FPL Alert: Restoration crew is en route to restore2424 DORSON WAY. An estimated restoration time is under investigation. Updates at FPL.com/outage||6302420839|Y||Y|C000000039|I-Notify Processes|12/16/2014 00:04:19|MARCELIN PIERREJULES|2424 DORSON WAY|DELRAY BEACH|FL|33445||||||
456496|688|6696730404|1627097|FPL Alert: Restoration crew is working to restore power to 7795 JUNIPER ST. An estimated restoration time is under investigation. Updates at FPL.com/outage||6302420839|Y||Y|C000000039|I-Notify Processes|12/16/2014 00:04:19|CAVA CUNNINGHAM|7795 JUNIPER ST|MIRAMAR|FL|33023||||||
456496|688|6696730404|1627097|FPL Alert: Restoration crew is working to restore power to 7795 JUNIPER ST. An estimated restoration time is under investigation. Updates at FPL.com/outage||6302420839|Y||Y|C000000039|I-Notify Processes|12/16/2014 00:04:19|CAVA CUNNINGHAM|7795 JUNIPER ST|MIRAMAR|FL|33023||||||
456497|15393|8537279047|865430|FPL Alert: Restoration crew is working to restore power to 8401 LAKELAND BLVD. An estimated restoration time is under investigation. Updates at FPL.com/outage||6302420839|Y||Y|C000000039|I-Notify Processes|12/16/2014 00:04:19|ROBERT MCDOWELL|8401 LAKELAND BLVD|FORT PIERCE|FL|34951||||||
456497|15393|8537279047|865430|FPL Alert: Restoration crew is working to restore power to 8401 LAKELAND BLVD. An estimated restoration time is under investigation. Updates at FPL.com/outage||6302420839|Y||Y|C000000039|I-Notify Processes|12/16/2014 00:04:19|ROBERT MCDOWELL|8401 LAKELAND BLVD|FORT PIERCE|FL|34951||||||
456498|3267|1789307418|31951319|FPL Alert: Restoration crew is working to restore power to 10868 NW 8TH CT. An estimated restoration time is under investigation. Updates at FPL.com/outage||6302420839|Y||Y|C000000039|I-Notify Processes|12/16/2014 00:04:19||10868 NW 8TH CT|PLANTATION|FL|33324||||||
456498|3267|1789307418|31951319|FPL Alert: Restoration crew is working to restore power to 10868 NW 8TH CT. An estimated restoration time is under investigation. Updates at FPL.com/outage||6302420839|Y||Y|C000000039|I-Notify Processes|12/16/2014 00:04:19||10868 NW 8TH CT|PLANTATION|FL|33324||||||
456499|8037|4478771076|385249859|FPL Alert: Restoration crew is working to restore power to 10914 NW 8TH CT. An estimated restoration time is under investigation. Updates at FPL.com/outage||6302420839|Y||Y|C000000039|I-Notify Processes|12/16/2014 00:04:19|DANIELLE WARD|10914 NW 8TH CT|PLANTATION|FL|33324||||||
456499|8037|4478771076|385249859|FPL Alert: Restoration crew is working to restore power to 10914 NW 8TH CT. An estimated restoration time is under investigation. Updates at FPL.com/outage||6302420839|Y||Y|C000000039|I-Notify Processes|12/16/2014 00:04:19|DANIELLE WARD|10914 NW 8TH CT|PLANTATION|FL|33324||||||
456502|11922|6596850450|3311037|FPL Alert: A power outage is scheduled for 3203 PORT ROYALE DR while we upgrade our system. An estimated restoration time is under investigation. Updates at FPL.com/outage||6302420839|Y||Y|C000000039|I-Notify Processes|12/16/2014 00:04:19|BISER ANGELOV|3203 PORT ROYALE DR S APT D|FT LAUDERDALE|FL|33308||||||
456502|11922|6596850450|3311037|FPL Alert: A power outage is scheduled for 3203 PORT ROYALE DR while we upgrade our system. An estimated restoration time is under investigation. Updates at FPL.com/outage||6302420839|Y||Y|C000000039|I-Notify Processes|12/16/2014 00:04:19|BISER ANGELOV|3203 PORT ROYALE DR S APT D|FT LAUDERDALE|FL|33308||||||
456528|2266|1248712109|697783|FPL Alert: Power is out at 813 BURCH DR. There are 22 customers affected. An estimated restoration time is under investigation. Updates at FPL.com/outage||6302420839|Y||Y|C000000039|I-Notify Processes|12/16/2014 00:04:47|KENNY HATCH|813 BURCH DR|WEST PALM BEACH|FL|33415||||||
456529|17338|9598822154|697782|FPL Alert: Restoration specialist is en route to 799 BURCH DR. An estimated restoration time is under investigation. Updates at FPL.com/outage||6302420839|Y||Y|C000000039|I-Notify Processes|12/16/2014 00:04:47|NERISSA TEWKSBURY|799 BURCH DR|WEST PALM BEACH|FL|33415||||||
456530|613|5911672474|697807|FPL Alert: Restoration specialist is working to restore 800 MANGO DR. An estimated restoration time is under investigation. Updates at FPL.com/outage||6302420839|Y||Y|C000000039|I-Notify Processes|12/16/2014 00:04:47|ROBERT SOMMERS|800 MANGO DR|WEST PALM BEACH|FL|33415||||||
456531|2366|1301047187|583938|FPL Alert: Additional resources sent to restore power to 1861 NE 22ND AVE. An estimated restoration time is under investigation. Updates at FPL.com/outage||6302420839|Y||Y|C000000039|I-Notify Processes|12/16/2014 00:04:47|BILL BROWN|1861 NE 22ND AVE|JENSEN BEACH|FL|34957||||||
456532|6368|3510847324|1354660|FPL Alert: Restoration crew is working to restore power to 831 SW 27TH ST. An estimated restoration time is under investigation. Updates at FPL.com/outage||6302420839|Y||Y|C000000039|I-Notify Processes|12/16/2014 00:04:47|JANE VREELAND|831 SW 27TH ST|FT LAUDERDALE|FL|33315||||||
456533|216|135243129|1354663|FPL Alert: Outage update. Power should be on at 830 SW 26TH CT. If not try FPL.com/resetbreakers or report it at FPL.com/outage or call 1-800-468-8243||6302420839|Y||Y|C000000039|I-Notify Processes|12/16/2014 00:04:47|LOUIS BAEZ|830 SW 26TH CT|FT LAUDERDALE|FL|33315||||||
456534|8063|4491850485|1354661|FPL Alert: We're unable to locate or gain access to the outage location to resolve the power issue for 837 SW 27TH ST. Please call 1-800-468-8243||6302420839|Y||Y|C000000039|I-Notify Processes|12/16/2014 00:04:47|JESS SCHOPP|837 SW 27TH ST|FT LAUDERDALE|FL|33315||||||
456541|2266|1248712109|697783|FPL Alert: Restoration specialist is en route to 813 BURCH DR. We expect power to be back on at 10:09 AM 12/16. Updates at FPL.com/outage||6302420839|Y||Y|C000000039|I-Notify Processes|12/16/2014 00:04:47|KENNY HATCH|813 BURCH DR|WEST PALM BEACH|FL|33415||||||
456542|17338|9598822154|697782|FPL Alert: Restoration specialist is en route to 799 BURCH DR. An estimated restoration time is under investigation. Updates at FPL.com/outage||6302420839|Y||Y|C000000039|I-Notify Processes|12/16/2014 00:04:47|NERISSA TEWKSBURY|799 BURCH DR|WEST PALM BEACH|FL|33415||||||
456543|613|5911672474|697807|FPL Alert: Restoration specialist is en route to 800 MANGO DR. An estimated restoration time is under investigation. Updates at FPL.com/outage||6302420839|Y||Y|C000000039|I-Notify Processes|12/16/2014 00:04:47|ROBERT SOMMERS|800 MANGO DR|WEST PALM BEACH|FL|33415||||||
456544|2366|1301047187|583938|FPL Alert: Restoration specialist is en route to 1861 NE 22ND AVE. An estimated restoration time is under investigation. Updates at FPL.com/outage||6302420839|Y||Y|C000000039|I-Notify Processes|12/16/2014 00:04:47|BILL BROWN|1861 NE 22ND AVE|JENSEN BEACH|FL|34957||||||
456545|6368|3510847324|1354660|FPL Alert: Restoration specialist is  in the area working to restore the power to 831 SW 27TH ST by 10:09 AM 12/16. Updates at FPL.com/outage||6302420839|Y||Y|C000000039|I-Notify Processes|12/16/2014 00:04:47|JANE VREELAND|831 SW 27TH ST|FT LAUDERDALE|FL|33315||||||
456546|216|135243129|1354663|FPL Alert: Additional resources sent to restore power to 830 SW 26TH CT. An estimated restoration time is under investigation. Updates at FPL.com/outage||6302420839|Y||Y|C000000039|I-Notify Processes|12/16/2014 00:04:47|LOUIS BAEZ|830 SW 26TH CT|FT LAUDERDALE|FL|33315||||||
456547|8063|4491850485|1354661|FPL Alert: We're sending additional resources to restore power to 837 SW 27TH ST. We expect power to be back on by 10:09 AM 12/16. Updates at FPL.com/outage||6302420839|Y||Y|C000000039|I-Notify Processes|12/16/2014 00:04:47|JESS SCHOPP|837 SW 27TH ST|FT LAUDERDALE|FL|33315||||||
456548|16545|9151873339|1918417|FPL Alert: Restoration crew is en route to restore power to 2902 VICTORIA CIR AP. We expect power to be back on by 10:09 AM 12/16. Updates at FPL.com/outage||6302420839|Y||Y|C000000039|I-Notify Processes|12/16/2014 00:04:47|CARLA ROMANER|2902 VICTORIA CIR APT M2|COCONUT CREEK|FL|33066||||||
456549|5256|2864329392|1918452|FPL Alert: A power outage is scheduled for 2903 VICTORIA CIR AP while we upgrade our system. We expect power to be back on 10:09 AM 12/16. Updates at FPL.com/outage||6302420839|Y||Y|C000000039|I-Notify Processes|12/16/2014 00:04:47|SHERRY KYSER|2903 VICTORIA CIR APT C4|COCONUT CREEK|FL|33066||||||
456550|6867|3779057433|1918495|FPL Alert: The outage at 2903 VICTORIA CIR AP was caused by a tree/branch damaging FPL equipment. Your power should be on. If not try FPL.com/resetbreakers||6302420839|Y||Y|C000000039|I-Notify Processes|12/16/2014 00:04:47|BETINA TRYFOROS|2903 VICTORIA CIR APT N2|COCONUT CREEK|FL|33066||||||
456528|2266|1248712109|697783|FPL Alert: Power is out at 813 BURCH DR. There are 22 customers affected. An estimated restoration time is under investigation. Updates at FPL.com/outage||6302420839|Y||Y|C000000039|I-Notify Processes|12/16/2014 00:09:10|KENNY HATCH|813 BURCH DR|WEST PALM BEACH|FL|33415||||||
456529|17338|9598822154|697782|FPL Alert: Restoration specialist is en route to 799 BURCH DR. An estimated restoration time is under investigation. Updates at FPL.com/outage||6302420839|Y||Y|C000000039|I-Notify Processes|12/16/2014 00:09:10|NERISSA TEWKSBURY|799 BURCH DR|WEST PALM BEACH|FL|33415||||||
456530|613|5911672474|697807|FPL Alert: Restoration specialist is working to restore 800 MANGO DR. An estimated restoration time is under investigation. Updates at FPL.com/outage||6302420839|Y||Y|C000000039|I-Notify Processes|12/16/2014 00:09:10|ROBERT SOMMERS|800 MANGO DR|WEST PALM BEACH|FL|33415||||||
456531|2366|1301047187|583938|FPL Alert: Additional resources sent to restore power to 1861 NE 22ND AVE. An estimated restoration time is under investigation. Updates at FPL.com/outage||6302420839|Y||Y|C000000039|I-Notify Processes|12/16/2014 00:09:10|BILL BROWN|1861 NE 22ND AVE|JENSEN BEACH|FL|34957||||||
456532|6368|3510847324|1354660|FPL Alert: Restoration crew is working to restore power to 831 SW 27TH ST. An estimated restoration time is under investigation. Updates at FPL.com/outage||6302420839|Y||Y|C000000039|I-Notify Processes|12/16/2014 00:09:10|JANE VREELAND|831 SW 27TH ST|FT LAUDERDALE|FL|33315||||||
456533|216|135243129|1354663|FPL Alert: Outage update. Power should be on at 830 SW 26TH CT. If not try FPL.com/resetbreakers or report it at FPL.com/outage or call 1-800-468-8243||6302420839|Y||Y|C000000039|I-Notify Processes|12/16/2014 00:09:10|LOUIS BAEZ|830 SW 26TH CT|FT LAUDERDALE|FL|33315||||||
456534|8063|4491850485|1354661|FPL Alert: We're unable to locate or gain access to the outage location to resolve the power issue for 837 SW 27TH ST. Please call 1-800-468-8243||6302420839|Y||Y|C000000039|I-Notify Processes|12/16/2014 00:09:10|JESS SCHOPP|837 SW 27TH ST|FT LAUDERDALE|FL|33315||||||
456541|2266|1248712109|697783|FPL Alert: Restoration specialist is en route to 813 BURCH DR. We expect power to be back on at 10:09 AM 12/16. Updates at FPL.com/outage||6302420839|Y||Y|C000000039|I-Notify Processes|12/16/2014 00:09:10|KENNY HATCH|813 BURCH DR|WEST PALM BEACH|FL|33415||||||
456542|17338|9598822154|697782|FPL Alert: Restoration specialist is en route to 799 BURCH DR. An estimated restoration time is under investigation. Updates at FPL.com/outage||6302420839|Y||Y|C000000039|I-Notify Processes|12/16/2014 00:09:10|NERISSA TEWKSBURY|799 BURCH DR|WEST PALM BEACH|FL|33415||||||
456543|613|5911672474|697807|FPL Alert: Restoration specialist is en route to 800 MANGO DR. An estimated restoration time is under investigation. Updates at FPL.com/outage||6302420839|Y||Y|C000000039|I-Notify Processes|12/16/2014 00:09:10|ROBERT SOMMERS|800 MANGO DR|WEST PALM BEACH|FL|33415||||||
456544|2366|1301047187|583938|FPL Alert: Restoration specialist is en route to 1861 NE 22ND AVE. An estimated restoration time is under investigation. Updates at FPL.com/outage||6302420839|Y||Y|C000000039|I-Notify Processes|12/16/2014 00:09:10|BILL BROWN|1861 NE 22ND AVE|JENSEN BEACH|FL|34957||||||
456545|6368|3510847324|1354660|FPL Alert: Restoration specialist is  in the area working to restore the power to 831 SW 27TH ST by 10:09 AM 12/16. Updates at FPL.com/outage||6302420839|Y||Y|C000000039|I-Notify Processes|12/16/2014 00:09:10|JANE VREELAND|831 SW 27TH ST|FT LAUDERDALE|FL|33315||||||
456546|216|135243129|1354663|FPL Alert: Additional resources sent to restore power to 830 SW 26TH CT. An estimated restoration time is under investigation. Updates at FPL.com/outage||6302420839|Y||Y|C000000039|I-Notify Processes|12/16/2014 00:09:10|LOUIS BAEZ|830 SW 26TH CT|FT LAUDERDALE|FL|33315||||||
456547|8063|4491850485|1354661|FPL Alert: We're sending additional resources to restore power to 837 SW 27TH ST. We expect power to be back on by 10:09 AM 12/16. Updates at FPL.com/outage||6302420839|Y||Y|C000000039|I-Notify Processes|12/16/2014 00:09:10|JESS SCHOPP|837 SW 27TH ST|FT LAUDERDALE|FL|33315||||||
456548|16545|9151873339|1918417|FPL Alert: Restoration crew is en route to restore power to 2902 VICTORIA CIR AP. We expect power to be back on by 10:09 AM 12/16. Updates at FPL.com/outage||6302420839|Y||Y|C000000039|I-Notify Processes|12/16/2014 00:09:10|CARLA ROMANER|2902 VICTORIA CIR APT M2|COCONUT CREEK|FL|33066||||||
456549|5256|2864329392|1918452|FPL Alert: A power outage is scheduled for 2903 VICTORIA CIR AP while we upgrade our system. We expect power to be back on 10:09 AM 12/16. Updates at FPL.com/outage||6302420839|Y||Y|C000000039|I-Notify Processes|12/16/2014 00:09:10|SHERRY KYSER|2903 VICTORIA CIR APT C4|COCONUT CREEK|FL|33066||||||
456550|6867|3779057433|1918495|FPL Alert: The outage at 2903 VICTORIA CIR AP was caused by a tree/branch damaging FPL equipment. Your power should be on. If not try FPL.com/resetbreakers||6302420839|Y||Y|C000000039|I-Notify Processes|12/16/2014 00:09:10|BETINA TRYFOROS|2903 VICTORIA CIR APT N2|COCONUT CREEK|FL|33066||||||
